{
	"description": "项目配置文件。",
	"setting": {
		"urlCheck": false,
		"es6": true,
		"postcss": true,
		"minified": true,
		"newFeature": true
	},
	"compileType": "miniprogram",
	"libVersion": "1.9.1",
	"appid": "wx1b64f1ae6c108b56",
	"projectname": "cambridgeeducation",
	"condition": {
		"search": {
			"current": -1,
			"list": []
		},
		"conversation": {
			"current": -1,
			"list": []
		},
		"game": {
			"current": -1,
			"list": []
		},
		"miniprogram": {
			"current": -1,
			"list": [
				{
					"id": 0,
					"name": "模版消息，进入小程序",
					"pathName": "pages/binding/binding",
					"query": "validateCode=test&flag=false&relationship=father&firstName=aa&lastName=aa&dateOfBirth=2017-07-13&cellphone=13666254921",
					"scene": "1014"
				},
				{
					"id": 1,
					"name": "文章详情",
					"pathName": "pages/articleList/articleDetails/articleDetails",
					"query": "id=5a45aed38e31c9f2548c1bdb&title=富文本升级测试",
					"scene": "1014"
				}
			]
		}
	}
}